…
``` r
mort.data$mortality
```

    ##  [1] 0.72 0.76 0.80 0.68 0.80 0.84 0.64 0.76 0.84 0.72 0.68 0.76 0.72 0.72 0.76
    ## [16] 0.76 0.88 0.80 0.72 0.72 0.80 0.84 0.72 0.68 0.84 0.72 0.80 0.88 0.68 0.68
    ## [31] 0.76 0.76 0.64 0.68 0.84 0.72 0.60 0.84 0.72 0.64 0.60 0.60 0.76 0.84 0.80
    ## [46] 0.88 0.76 0.76 0.72 0.72

``` r
mort.data[,4]
```

    ## # A tibble: 50 × 1
    ##    mortality
    ##        <dbl>
    ##  1      0.72
    ##  2      0.76
    ##  3      0.8 
    ##  4      0.68
    ##  5      0.8 
    ##  6      0.84
    ##  7      0.64
    ##  8      0.76
    ##  9      0.84
    ## 10      0.72
    ## # ℹ 40 more rows
…
